mc20_13TeV.701095.Sh_2214_ZqqZvv.deriv.DAOD_PHYS.e8547_s3797_r13167_p6026
mc20_13TeV.701085.Sh_2214_ZqqZll.deriv.DAOD_PHYS.e8547_s3797_r13167_p6026
mc20_13TeV.701105.Sh_2214_WqqZll.deriv.DAOD_PHYS.e8547_s3797_r13167_p6026
mc20_13TeV.701125.Sh_2214_WlvWqq.deriv.DAOD_PHYS.e8547_s3797_r13167_p6026
mc20_13TeV.701115.Sh_2214_WlvZqq.deriv.DAOD_PHYS.e8547_s3797_r13167_p6026
